{
  "store": "google",
  "gameEngine": "unity",
  "audienceModeBuildOnly": "non-children",
  "orientation": "portrait",
  "geoLocationServer": "ttplugins.ttpsdk.info",
  "appId": "",
  "bundleId": "com.HubbleGames.FistStack3D",
  "testMode": false,
  "askForTracking": false,
  "isAdMob": true,
  "appBuildConfig": {
    "admob": {
      "application": ""
    }
  }
}