%YAML 1.1
%TAG !u! tag:unity3d.com,2011:
--- !u!21 &2100000
Material:
  serializedVersion: 6
  m_ObjectHideFlags: 0
  m_CorrespondingSourceObject: {fileID: 0}
  m_PrefabInstance: {fileID: 0}
  m_PrefabAsset: {fileID: 0}
  m_Name: MAT_GrayGround
  m_Shader: {fileID: 4800000, guid: 933532a4fcc9baf4fa0491de14d08ed7, type: 3}
  m_ShaderKeywords: 
  m_LightmapFlags: 4
  m_EnableInstancingVariants: 0
  m_DoubleSidedGI: 0
  m_CustomRenderQueue: 2000
  stringTagMap:
    RenderType: Opaque
  disabledShaderPasses: []
  m_SavedProperties:
    serializedVersion: 3
    m_TexEnvs:
    - _AOTexture:
        m_Texture: {fileID: 0}
        m_Scale: {x: 1, y: 1}
        m_Offset: {x: 0, y: 0}
    - _BaseMap:
        m_Texture: {fileID: 2800000, guid: 6962db3b786833248a3a6e62eeab3453, type: 3}
        m_Scale: {x: 1, y: 100}
        m_Offset: {x: 0, y: 0}
    - _BumpMap:
        m_Texture: {fileID: 0}
        m_Scale: {x: 1, y: 1}
        m_Offset: {x: 0, y: 0}
    - _DetailAlbedoMap:
        m_Texture: {fileID: 0}
        m_Scale: {x: 1, y: 1}
        m_Offset: {x: 0, y: 0}
    - _DetailMask:
        m_Texture: {fileID: 0}
        m_Scale: {x: 1, y: 1}
        m_Offset: {x: 0, y: 0}
    - _DetailNormalMap:
        m_Texture: {fileID: 0}
        m_Scale: {x: 1, y: 1}
        m_Offset: {x: 0, y: 0}
    - _EmissionMap:
        m_Texture: {fileID: 0}
        m_Scale: {x: 1, y: 100}
        m_Offset: {x: 0, y: 0}
    - _MainTex:
        m_Texture: {fileID: 2800000, guid: 6962db3b786833248a3a6e62eeab3453, type: 3}
        m_Scale: {x: 1, y: 100}
        m_Offset: {x: 0, y: 0}
    - _MainTexture:
        m_Texture: {fileID: 0}
        m_Scale: {x: 1, y: 1}
        m_Offset: {x: 0, y: 0}
    - _MetallicGlossMap:
        m_Texture: {fileID: 0}
        m_Scale: {x: 1, y: 1}
        m_Offset: {x: 0, y: 0}
    - _OcclusionMap:
        m_Texture: {fileID: 0}
        m_Scale: {x: 1, y: 1}
        m_Offset: {x: 0, y: 0}
    - _ParallaxMap:
        m_Texture: {fileID: 0}
        m_Scale: {x: 1, y: 1}
        m_Offset: {x: 0, y: 0}
    - _SpecGlossMap:
        m_Texture: {fileID: 0}
        m_Scale: {x: 1, y: 1}
        m_Offset: {x: 0, y: 0}
    - _Texture:
        m_Texture: {fileID: 2800000, guid: 6962db3b786833248a3a6e62eeab3453, type: 3}
        m_Scale: {x: 1, y: 1}
        m_Offset: {x: 0, y: 0}
    - _texcoord:
        m_Texture: {fileID: 0}
        m_Scale: {x: 1, y: 1}
        m_Offset: {x: 0, y: 0}
    - unity_Lightmaps:
        m_Texture: {fileID: 0}
        m_Scale: {x: 1, y: 1}
        m_Offset: {x: 0, y: 0}
    - unity_LightmapsInd:
        m_Texture: {fileID: 0}
        m_Scale: {x: 1, y: 1}
        m_Offset: {x: 0, y: 0}
    - unity_ShadowMasks:
        m_Texture: {fileID: 0}
        m_Scale: {x: 1, y: 1}
        m_Offset: {x: 0, y: 0}
    m_Floats:
    - _AOEnable: 0
    - _AOPower: 0
    - _AOuv: 0
    - _AlbedoIntensity: 0.3
    - _AlphaClip: 0
    - _AlphaCutoff: 0.5
    - _AmbientPower: 0
    - _Blend: 0
    - _BlendOp: 0
    - _Brightness: 0
    - _BumpScale: 1
    - _CameraFadingEnabled: 0
    - _CameraFarFadeDistance: 2
    - _CameraNearFadeDistance: 1
    - _ClearCoatMask: 0
    - _ClearCoatSmoothness: 0
    - _ColorContrast: 1
    - _ColorCorrectionEnable: 0
    - _ColorIntensity: 0.85
    - _ColorMode: 0
    - _Cull: 2
    - _Cutoff: 0.5
    - _DetailAlbedoMapScale: 1
    - _DetailNormalMapScale: 1
    - _DistortionBlend: 0.5
    - _DistortionEnabled: 0
    - _DistortionStrength: 1
    - _DistortionStrengthScaled: 0.1
    - _DontMix: 0
    - _DstBlend: 0
    - _EnvironmentReflections: 1
    - _Fade: 1
    - _FlipbookBlending: 0
    - _FlipbookMode: 0
    - _FogHeight: 10
    - _FogYStartPos: 0
    - _GlossMapScale: 1
    - _Glossiness: 0
    - _GlossyReflections: 1
    - _GradSettings_B: 0
    - _GradSettings_D: 0
    - _GradSettings_F: 0
    - _GradSettings_L: 0
    - _GradSettings_R: 0
    - _GradSettings_T: 0
    - _GradientHeight_B: 1
    - _GradientHeight_D: 1
    - _GradientHeight_F: 1
    - _GradientHeight_G: 1
    - _GradientHeight_L: 1
    - _GradientHeight_R: 1
    - _GradientHeight_T: 1
    - _GradientSpace: 0
    - _HFogEnable: 0
    - _LMPower: 0
    - _LmapBlendingMode: 0
    - _LmapEnable: 0
    - _MainTexturePower: 0
    - _Metallic: 0.255
    - _Mode: 0
    - _OcclusionStrength: 1
    - _OtherSettings: 0
    - _Parallax: 0.02
    - _QueueOffset: 0
    - _RealtimeShadow: 0
    - _ReceiveShadows: 1
    - _RimEnable: 0
    - _RimPower: 1
    - _Rotation_B: 0
    - _Rotation_D: 0
    - _Rotation_F: 0
    - _Rotation_G: 0
    - _Rotation_L: 0
    - _Rotation_R: 0
    - _Rotation_T: 0
    - _Saturation: 1
    - _Shading_B: 0
    - _Shading_D: 0
    - _Shading_F: 0
    - _Shading_L: 0
    - _Shading_R: 0
    - _Shading_T: 0
    - _ShadowBlend: 0.5
    - _ShadowInfluence: 0.5
    - _ShowAO: 0
    - _ShowAmbientSettings: 0
    - _ShowBack: 0
    - _ShowBottom: 0
    - _ShowColorCorrection: 0
    - _ShowCustomShading: 0
    - _ShowFog: 0
    - _ShowFront: 0
    - _ShowGlobalGradientSettings: 0
    - _ShowLMap: 0
    - _ShowLeft: 0
    - _ShowRight: 0
    - _ShowTexture: 0
    - _ShowTop: 0
    - _Smoothness: 0
    - _SmoothnessTextureChannel: 0
    - _SoftParticlesEnabled: 0
    - _SoftParticlesFarFadeDistance: 1
    - _SoftParticlesNearFadeDistance: 0
    - _SpecularHighlights: 1
    - _SrcBlend: 1
    - _Surface: 0
    - _UVSec: 0
    - _UnityFogEnable: 0
    - _WorkflowMode: 1
    - _WorldNormal: 0.3
    - _ZWrite: 1
    - _ZWriteOverride: 0
    m_Colors:
    - _AOColor: {r: 1, g: 1, b: 1, a: 1}
    - _AmbientColor: {r: 0, g: 0, b: 0, a: 0}
    - _BaseColor: {r: 1, g: 1, b: 1, a: 1}
    - _BaseColorAddSubDiff: {r: 0, g: 0, b: 0, a: 0}
    - _CameraFadeParams: {r: 0, g: 0, b: 0, a: 0}
    - _Color: {r: 0.9150943, g: 0.6854725, b: 0.366901, a: 1}
    - _Color1_B: {r: 1, g: 1, b: 1, a: 1}
    - _Color1_D: {r: 1, g: 1, b: 1, a: 1}
    - _Color1_F: {r: 1, g: 1, b: 1, a: 1}
    - _Color1_L: {r: 1, g: 1, b: 1, a: 1}
    - _Color1_R: {r: 1, g: 1, b: 1, a: 1}
    - _Color1_T: {r: 1, g: 1, b: 1, a: 1}
    - _Color2_B: {r: 1, g: 1, b: 1, a: 1}
    - _Color2_D: {r: 1, g: 1, b: 1, a: 1}
    - _Color2_F: {r: 1, g: 1, b: 1, a: 1}
    - _Color2_L: {r: 1, g: 1, b: 1, a: 1}
    - _Color2_R: {r: 1, g: 1, b: 1, a: 1}
    - _Color2_T: {r: 1, g: 1, b: 1, a: 1}
    - _Color_Fog: {r: 0.5, g: 0.5, b: 0.5, a: 1}
    - _EmissionColor: {r: 0, g: 0, b: 0, a: 1}
    - _GizmoPosition_B: {r: 0, g: 0, b: 10, a: 10}
    - _GizmoPosition_D: {r: 0, g: 0, b: 10, a: 10}
    - _GizmoPosition_F: {r: 0, g: 0, b: 10, a: 10}
    - _GizmoPosition_L: {r: 0, g: 0, b: 10, a: 10}
    - _GizmoPosition_R: {r: 0, g: 0, b: 10, a: 10}
    - _GizmoPosition_T: {r: 0, g: 0, b: 10, a: 10}
    - _GradientXStartPos_D: {r: 0, g: 0, b: 0, a: 0}
    - _GradientXStartPos_T: {r: 0, g: 0, b: 0, a: 0}
    - _GradientYStartPos_B: {r: 0, g: 0, b: 0, a: 0}
    - _GradientYStartPos_F: {r: 0, g: 0, b: 0, a: 0}
    - _GradientYStartPos_G: {r: 0, g: 0, b: 0, a: 0}
    - _GradientYStartPos_L: {r: 0, g: 0, b: 0, a: 0}
    - _GradientYStartPos_R: {r: 0, g: 0, b: 0, a: 0}
    - _LMColor: {r: 1, g: 1, b: 1, a: 1}
    - _RimColor: {r: 1, g: 1, b: 1, a: 1}
    - _ShadowColor: {r: 0.1, g: 0.1, b: 0.1, a: 1}
    - _SoftParticleFadeParams: {r: 0, g: 0, b: 0, a: 0}
    - _SpecColor: {r: 0.2, g: 0.2, b: 0.2, a: 1}
    - _TintColor: {r: 1, g: 1, b: 1, a: 1}
  m_BuildTextureStacks: []
--- !u!114 &2683951291477226190
MonoBehaviour:
  m_ObjectHideFlags: 11
  m_CorrespondingSourceObject: {fileID: 0}
  m_PrefabInstance: {fileID: 0}
  m_PrefabAsset: {fileID: 0}
  m_GameObject: {fileID: 0}
  m_Enabled: 1
  m_EditorHideFlags: 0
  m_Script: {fileID: 11500000, guid: d0353a89b1f911e48b9e16bdc9f2e058, type: 3}
  m_Name: 
  m_EditorClassIdentifier: 
  version: 4
